[
{
    "model": "payment.subscriptionplans",
    "pk": 2,
    "fields": {
        "created_ts": "2019-12-21T04:31:47.738Z",
        "updated_ts": "2019-12-26T03:29:06.317Z",
        "created_by": 1,
        "updated_by": 1,
        "title": "Business",
        "screens": 2000,
        "duration": "11:06:40",
        "per_month_quota": 4000,
        "changes_allowed": 1,
        "is_analytics": true,
        "is_app_allowed": true,
        "validity": 30,
        "cost": 39.99,
        "location": [

        ]
    }
},
{
    "model": "payment.subscriptionplans",
    "pk": 1,
    "fields": {
        "created_ts": "2019-12-21T04:32:12.539Z",
        "updated_ts": "2019-12-26T03:28:33.951Z",
        "created_by": 1,
        "updated_by": 1,
        "title": "Basic",
        "screens": 100,
        "duration": "00:16:40",
        "per_month_quota": 100,
        "changes_allowed": 0,
        "is_analytics": false,
        "is_app_allowed": false,
        "validity": 30,
        "cost": 9.99,
        "location": [

        ]
    }
}
]
