[
{
    "model": "user.businesses",
    "pk": 2,
    "fields": {
        "created_ts": "2019-12-12T16:40:07.724Z",
        "updated_ts": "2019-12-12T16:40:07.724Z",
        "created_by": 1,
        "updated_by": null,
        "title": "Software Engineer",
        "user": 1,
        "slug": "software-engineer"
    }
},
{
    "model": "user.businesses",
    "pk": 3,
    "fields": {
        "created_ts": "2019-12-12T19:12:43.255Z",
        "updated_ts": "2019-12-12T19:12:43.255Z",
        "created_by": null,
        "updated_by": null,
        "title": "Sales & Marketing",
        "user": null,
        "slug": "sales-marketing"
    }
},
{
    "model": "user.businesses",
    "pk": 6,
    "fields": {
        "created_ts": "2019-12-13T17:40:30.520Z",
        "updated_ts": "2019-12-13T17:40:30.520Z",
        "created_by": 1,
        "updated_by": null,
        "title": "Accounting & Finance",
        "user": 1,
        "slug": "accounting-finance"
    }
},
{
    "model": "user.businesses",
    "pk": 17,
    "fields": {
        "created_ts": "2019-12-13T17:41:53.443Z",
        "updated_ts": "2019-12-13T17:41:53.443Z",
        "created_by": 1,
        "updated_by": null,
        "title": "Marketing & Sales",
        "user": 1,
        "slug": "marketing-sales"
    }
},
{
    "model": "user.businesses",
    "pk": 18,
    "fields": {
        "created_ts": "2019-12-13T17:42:13.494Z",
        "updated_ts": "2019-12-13T17:42:13.494Z",
        "created_by": 1,
        "updated_by": null,
        "title": "Customer Support",
        "user": 1,
        "slug": "customer-support"
    }
},
{
    "model": "user.businesses",
    "pk": 19,
    "fields": {
        "created_ts": "2019-12-13T17:42:34.497Z",
        "updated_ts": "2019-12-13T17:42:34.497Z",
        "created_by": 1,
        "updated_by": null,
        "title": "Founder & CEO",
        "user": 1,
        "slug": "founder-ceo"
    }
},
{
    "model": "user.businesses",
    "pk": 20,
    "fields": {
        "created_ts": "2019-12-13T17:42:55.403Z",
        "updated_ts": "2019-12-13T17:42:55.404Z",
        "created_by": 1,
        "updated_by": null,
        "title": "Retail & Hospitality",
        "user": 1,
        "slug": "retail-hospitality"
    }
},
{
    "model": "user.businesses",
    "pk": 21,
    "fields": {
        "created_ts": "2019-12-13T17:43:13.518Z",
        "updated_ts": "2019-12-13T17:43:13.518Z",
        "created_by": 1,
        "updated_by": null,
        "title": "Business Development",
        "user": 1,
        "slug": "business-development"
    }
},
{
    "model": "user.businesses",
    "pk": 22,
    "fields": {
        "created_ts": "2019-12-13T17:43:32.303Z",
        "updated_ts": "2019-12-13T17:43:32.303Z",
        "created_by": 1,
        "updated_by": null,
        "title": "Intern & Student",
        "user": 1,
        "slug": "intern-student"
    }
},
{
    "model": "user.businesses",
    "pk": 23,
    "fields": {
        "created_ts": "2019-12-13T17:43:51.449Z",
        "updated_ts": "2019-12-13T17:43:51.449Z",
        "created_by": 1,
        "updated_by": null,
        "title": "Counsaltant",
        "user": 1,
        "slug": "counsaltant"
    }
}
]
